…
### 4. Analyze

In the Analyze stage, we will start putting it to work.

First, let’s find the mean, max, min.

``` r
daily_act %>%
  group_by(Id) %>% 
  summarize(mean_steps = mean(TotalSteps),   
            max_steps = max(TotalSteps),
            min_steps = min(TotalSteps))
```

    ## # A tibble: 33 × 4
    ##            Id mean_steps max_steps min_steps
    ##         <dbl>      <dbl>     <dbl>     <dbl>
    ##  1 1503960366     12117.     18134         0
    ##  2 1624580081      5744.     36019      1510
    ##  3 1644430081      7283.     18213      1223
    ##  4 1844505072      2580.      8054         0
    ##  5 1927972279       916.      3790         0
    ##  6 2022484408     11371.     18387      3292
    ##  7 2026352035      5567.     12357       254
    ##  8 2320127002      4717.     10725       772
    ##  9 2347167796      9520.     22244        42
    ## 10 2873212765      7556.      9685      2524
    ## # … with 23 more rows
…
``` r
daily_act02 <- daily_act %>% 
  mutate(UserType = case_when(
    TotalSteps < 4000 ~ "Sedentary Active",
    TotalSteps >= 4000 & TotalSteps < 7500 ~ "Lightly Active",
    TotalSteps >= 7501 & TotalSteps < 10000 ~ "Moderately Active",
    TotalSteps >= 10001 ~ "Very Active"
  ))
as_tibble(daily_act02)
```

    ## # A tibble: 940 × 17
    ##            Id Date       Total…¹ Total…² Track…³ Logge…⁴ VeryA…⁵ Moder…⁶ Light…⁷
    ##         <dbl> <date>       <dbl>   <dbl>   <dbl>   <dbl>   <dbl>   <dbl>   <dbl>
    ##  1 1503960366 2016-04-12   13162    8.5     8.5        0    1.88   0.550    6.06
    ##  2 1503960366 2016-04-13   10735    6.97    6.97       0    1.57   0.690    4.71
    ##  3 1503960366 2016-04-14   10460    6.74    6.74       0    2.44   0.400    3.91
    ##  4 1503960366 2016-04-15    9762    6.28    6.28       0    2.14   1.26     2.83
    ##  5 1503960366 2016-04-16   12669    8.16    8.16       0    2.71   0.410    5.04
    ##  6 1503960366 2016-04-17    9705    6.48    6.48       0    3.19   0.780    2.51
    ##  7 1503960366 2016-04-18   13019    8.59    8.59       0    3.25   0.640    4.71
    ##  8 1503960366 2016-04-19   15506    9.88    9.88       0    3.53   1.32     5.03
    ##  9 1503960366 2016-04-20   10544    6.68    6.68       0    1.96   0.480    4.24
    ## 10 1503960366 2016-04-21    9819    6.34    6.34       0    1.34   0.350    4.65
    ## # … with 930 more rows, 8 more variables: SedentaryActiveDistance <dbl>,
    ## #   VeryActiveMinutes <dbl>, FairlyActiveMinutes <dbl>,
    ## #   LightlyActiveMinutes <dbl>, SedentaryMinutes <dbl>, Calories <dbl>,
    ## #   Day <chr>, UserType <chr>, and abbreviated variable names ¹​TotalSteps,
    ## #   ²​TotalDistance, ³​TrackerDistance, ⁴​LoggedActivitiesDistance,
    ## #   ⁵​VeryActiveDistance, ⁶​ModeratelyActiveDistance, ⁷​LightActiveDistance

``` r
daily_act02 %>% 
  select(Id, Date, TotalSteps, Calories, Day, UserType)
```

    ## # A tibble: 940 × 6
    ##            Id Date       TotalSteps Calories Day       UserType         
    ##         <dbl> <date>          <dbl>    <dbl> <chr>     <chr>            
    ##  1 1503960366 2016-04-12      13162     1985 Tuesday   Very Active      
    ##  2 1503960366 2016-04-13      10735     1797 Wednesday Very Active      
    ##  3 1503960366 2016-04-14      10460     1776 Thursday  Very Active      
    ##  4 1503960366 2016-04-15       9762     1745 Friday    Moderately Active
    ##  5 1503960366 2016-04-16      12669     1863 Saturday  Very Active      
    ##  6 1503960366 2016-04-17       9705     1728 Sunday    Moderately Active
    ##  7 1503960366 2016-04-18      13019     1921 Monday    Very Active      
    ##  8 1503960366 2016-04-19      15506     2035 Tuesday   Very Active      
    ##  9 1503960366 2016-04-20      10544     1786 Wednesday Very Active      
    ## 10 1503960366 2016-04-21       9819     1775 Thursday  Moderately Active
    ## # … with 930 more rows
…
